{
  "meta": {
    "limit": 20,
    "next": "/api/v2/files/?api_key=special-key&limit=20&offset=20",
    "offset": 0,
    "previous": null,
    "total_count": 44
  },
  "objects": [
    {
      "aspects": {
        "digitalsignature": {
          "digital_signature": ""
        }
      },
      "category": "main",
      "created": "2014-09-17T13:55:32",
      "created_by": "Guðrún Ósvífursdóttir",
      "description": "",
      "digest": "",
      "dynatype": {
        "caption_plural": "dynatypes_labels:File_plural:",
        "caption_singular": "dynatypes_labels:File_singular:",
        "id": "36f7da88-3e59-11e4-bea0-d3a429e2fd15"
      },
      "filename": "262-12-COL.pdf",
      "folder": null,
      "id": "4ab3bb32-3e72-11e4-bfaa-ebeae41148db",
      "mime_type": "application/pdf",
      "modified": "2014-09-17T13:55:32",
      "modified_by": null,
      "owner": null,
      "parent": "550edbd0-3e71-11e4-b603-2f533110003f",
      "project": {
        "id": "54edb1d0-3e71-11e4-887c-ef003ef61c6c",
        "identifier": "2014-11",
        "title": "(1) Undirbúningur vinnustofu"
      },
      "resource_uri": "/api/v2/files/4ab3bb32-3e72-11e4-bfaa-ebeae41148db/",
      "size": 0,
      "space": {
        "id": "e634f784-3d8b-11e4-82a5-c3059141127e",
        "title": "Starfsmenn"
      },
      "tags": [],
      "title": "262-12-COL",
      "type": "File",
      "version": "None.0"
    },
    {
      "aspects": {
        "digitalsignature": {
          "digital_signature": ""
        }
      },
      "category": "main",
      "created": "2014-09-17T13:55:46",
      "created_by": "Guðrún Ósvífursdóttir",
      "description": "",
      "digest": "",
      "dynatype": {
        "caption_plural": "dynatypes_labels:File_plural:",
        "caption_singular": "dynatypes_labels:File_singular:",
        "id": "36f7da88-3e59-11e4-bea0-d3a429e2fd15"
      },
      "filename": "213-12-COL.pdf",
      "folder": null,
      "id": "5323f318-3e72-11e4-8082-c748c31922cd",
      "mime_type": "application/pdf",
      "modified": "2014-09-17T13:55:46",
      "modified_by": null,
      "owner": null,
      "parent": "83d465f2-3e71-11e4-b94e-dffb732bc4c5",
      "project": {
        "id": "83b29c9c-3e71-11e4-b515-87790595654d",
        "identifier": "2014-12",
        "title": "(2) Vinnustofa - núverandi ferli"
      },
      "resource_uri": "/api/v2/files/5323f318-3e72-11e4-8082-c748c31922cd/",
      "size": 0,
      "space": {
        "id": "e634f784-3d8b-11e4-82a5-c3059141127e",
        "title": "Starfsmenn"
      },
      "tags": [],
      "title": "213-12-COL",
      "type": "File",
      "version": "None.0"
    },
    {
      "aspects": {
        "digitalsignature": {
          "digital_signature": ""
        }
      },
      "category": "main",
      "created": "2014-09-17T13:55:47",
      "created_by": "Guðrún Ósvífursdóttir",
      "description": "",
      "digest": "",
      "dynatype": {
        "caption_plural": "dynatypes_labels:File_plural:",
        "caption_singular": "dynatypes_labels:File_singular:",
        "id": "36f7da88-3e59-11e4-bea0-d3a429e2fd15"
      },
      "filename": "261-12-COL.pdf",
      "folder": null,
      "id": "535c114e-3e72-11e4-bd29-ef61fd2010c0",
      "mime_type": "application/pdf",
      "modified": "2014-09-17T13:55:47",
      "modified_by": null,
      "owner": null,
      "parent": "83d465f2-3e71-11e4-b94e-dffb732bc4c5",
      "project": {
        "id": "83b29c9c-3e71-11e4-b515-87790595654d",
        "identifier": "2014-12",
        "title": "(2) Vinnustofa - núverandi ferli"
      },
      "resource_uri": "/api/v2/files/535c114e-3e72-11e4-bd29-ef61fd2010c0/",
      "size": 0,
      "space": {
        "id": "e634f784-3d8b-11e4-82a5-c3059141127e",
        "title": "Starfsmenn"
      },
      "tags": [],
      "title": "261-12-COL",
      "type": "File",
      "version": "None.0"
    },
    {
      "aspects": {
        "digitalsignature": {
          "digital_signature": ""
        }
      },
      "category": "main",
      "created": "2014-09-17T13:55:59",
      "created_by": "Guðrún Ósvífursdóttir",
      "description": "",
      "digest": "",
      "dynatype": {
        "caption_plural": "dynatypes_labels:File_plural:",
        "caption_singular": "dynatypes_labels:File_singular:",
        "id": "36f7da88-3e59-11e4-bea0-d3a429e2fd15"
      },
      "filename": "Contract.docx",
      "folder": null,
      "id": "5ac09d2e-3e72-11e4-af36-d3dbe5cfa614",
      "mime_type": "application/vnd.openxmlformats-officedocument.wordprocessingml.document",
      "modified": "2014-09-17T13:55:59",
      "modified_by": null,
      "owner": null,
      "parent": "a5d83e26-3e71-11e4-a3dc-4f1160a5d95e",
      "project": {
        "id": "a5b773f8-3e71-11e4-98b5-2fd72486ea46",
        "identifier": "2014-13",
        "title": "(3) Vinnustofa - framtíðarferli"
      },
      "resource_uri": "/api/v2/files/5ac09d2e-3e72-11e4-af36-d3dbe5cfa614/",
      "size": 0,
      "space": {
        "id": "e634f784-3d8b-11e4-82a5-c3059141127e",
        "title": "Starfsmenn"
      },
      "tags": [],
      "title": "Contract",
      "type": "File",
      "version": "None.0"
    },
    {
      "aspects": {
        "digitalsignature": {
          "digital_signature": ""
        }
      },
      "category": "main",
      "created": "2014-09-17T13:56:03",
      "created_by": "Guðrún Ósvífursdóttir",
      "description": "",
      "digest": "",
      "dynatype": {
        "caption_plural": "dynatypes_labels:File_plural:",
        "caption_singular": "dynatypes_labels:File_singular:",
        "id": "36f7da88-3e59-11e4-bea0-d3a429e2fd15"
      },
      "filename": "657221 -request for information.pdf",
      "folder": null,
      "id": "5cbdb404-3e72-11e4-a75e-e38a6aaabf34",
      "mime_type": "application/pdf",
      "modified": "2014-09-17T13:56:03",
      "modified_by": null,
      "owner": null,
      "parent": "a5d83e26-3e71-11e4-a3dc-4f1160a5d95e",
      "project": {
        "id": "a5b773f8-3e71-11e4-98b5-2fd72486ea46",
        "identifier": "2014-13",
        "title": "(3) Vinnustofa - framtíðarferli"
      },
      "resource_uri": "/api/v2/files/5cbdb404-3e72-11e4-a75e-e38a6aaabf34/",
      "size": 0,
      "space": {
        "id": "e634f784-3d8b-11e4-82a5-c3059141127e",
        "title": "Starfsmenn"
      },
      "tags": [],
      "title": "657221 -request for information",
      "type": "File",
      "version": "None.0"
    },
    {
      "aspects": {
        "digitalsignature": {
          "digital_signature": ""
        }
      },
      "category": "main",
      "created": "2014-09-17T13:56:03",
      "created_by": "Guðrún Ósvífursdóttir",
      "description": "",
      "digest": "",
      "dynatype": {
        "caption_plural": "dynatypes_labels:File_plural:",
        "caption_singular": "dynatypes_labels:File_singular:",
        "id": "36f7da88-3e59-11e4-bea0-d3a429e2fd15"
      },
      "filename": "666867 - correspondence in.PDF",
      "folder": null,
      "id": "5cd8ed8c-3e72-11e4-b2f7-6fb6d609d742",
      "mime_type": "application/pdf",
      "modified": "2014-09-17T13:56:03",
      "modified_by": null,
      "owner": null,
      "parent": "a5d83e26-3e71-11e4-a3dc-4f1160a5d95e",
      "project": {
        "id": "a5b773f8-3e71-11e4-98b5-2fd72486ea46",
        "identifier": "2014-13",
        "title": "(3) Vinnustofa - framtíðarferli"
      },
      "resource_uri": "/api/v2/files/5cd8ed8c-3e72-11e4-b2f7-6fb6d609d742/",
      "size": 0,
      "space": {
        "id": "e634f784-3d8b-11e4-82a5-c3059141127e",
        "title": "Starfsmenn"
      },
      "tags": [],
      "title": "666867 - correspondence in",
      "type": "File",
      "version": "None.0"
    },
    {
      "aspects": {
        "digitalsignature": {
          "digital_signature": ""
        }
      },
      "category": "main",
      "created": "2014-09-17T13:56:20",
      "created_by": "Guðrún Ósvífursdóttir",
      "description": "",
      "digest": "",
      "dynatype": {
        "caption_plural": "dynatypes_labels:File_plural:",
        "caption_singular": "dynatypes_labels:File_singular:",
        "id": "36f7da88-3e59-11e4-bea0-d3a429e2fd15"
      },
      "filename": "Fundargerd framkvæmdastjórnar.docx",
      "folder": null,
      "id": "6728d48c-3e72-11e4-9298-97a99e214386",
      "mime_type": "application/vnd.openxmlformats-officedocument.wordprocessingml.document",
      "modified": "2014-09-17T13:56:20",
      "modified_by": null,
      "owner": null,
      "parent": "d7410bdc-3e71-11e4-81ab-7385978573f0",
      "project": {
        "id": "d71ee462-3e71-11e4-a671-9f316da215e3",
        "identifier": "2014-14",
        "title": "(4) Skipulagning innleiðingar"
      },
      "resource_uri": "/api/v2/files/6728d48c-3e72-11e4-9298-97a99e214386/",
      "size": 0,
      "space": {
        "id": "e634f784-3d8b-11e4-82a5-c3059141127e",
        "title": "Starfsmenn"
      },
      "tags": [],
      "title": "Fundargerd framkvæmdastjórnar",
      "type": "File",
      "version": "None.0"
    },
    {
      "aspects": {
        "digitalsignature": {
          "digital_signature": ""
        }
      },
      "category": "main",
      "created": "2014-09-17T13:56:20",
      "created_by": "Guðrún Ósvífursdóttir",
      "description": "",
      "digest": "",
      "dynatype": {
        "caption_plural": "dynatypes_labels:File_plural:",
        "caption_singular": "dynatypes_labels:File_singular:",
        "id": "36f7da88-3e59-11e4-bea0-d3a429e2fd15"
      },
      "filename": "Fundargerd söludeildar.docx",
      "folder": null,
      "id": "67316dcc-3e72-11e4-a6a8-5317e865ee8a",
      "mime_type": "application/vnd.openxmlformats-officedocument.wordprocessingml.document",
      "modified": "2014-09-17T13:56:20",
      "modified_by": null,
      "owner": null,
      "parent": "d7410bdc-3e71-11e4-81ab-7385978573f0",
      "project": {
        "id": "d71ee462-3e71-11e4-a671-9f316da215e3",
        "identifier": "2014-14",
        "title": "(4) Skipulagning innleiðingar"
      },
      "resource_uri": "/api/v2/files/67316dcc-3e72-11e4-a6a8-5317e865ee8a/",
      "size": 0,
      "space": {
        "id": "e634f784-3d8b-11e4-82a5-c3059141127e",
        "title": "Starfsmenn"
      },
      "tags": [],
      "title": "Fundargerd söludeildar",
      "type": "File",
      "version": "None.0"
    },
    {
      "aspects": {
        "digitalsignature": {
          "digital_signature": ""
        }
      },
      "category": "main",
      "created": "2014-09-17T13:56:39",
      "created_by": "Guðrún Ósvífursdóttir",
      "description": "",
      "digest": "",
      "dynatype": {
        "caption_plural": "dynatypes_labels:File_plural:",
        "caption_singular": "dynatypes_labels:File_singular:",
        "id": "36f7da88-3e59-11e4-bea0-d3a429e2fd15"
      },
      "filename": "Samningur.docx",
      "folder": null,
      "id": "7271501c-3e72-11e4-babf-df55696f7f8d",
      "mime_type": "application/vnd.openxmlformats-officedocument.wordprocessingml.document",
      "modified": "2014-09-17T13:56:39",
      "modified_by": null,
      "owner": null,
      "parent": "f2055392-3e71-11e4-8e7d-1f2c69178fcd",
      "project": {
        "id": "f1e27796-3e71-11e4-9086-67f822473650",
        "identifier": "2014-15",
        "title": "(5) Innleiðing"
      },
      "resource_uri": "/api/v2/files/7271501c-3e72-11e4-babf-df55696f7f8d/",
      "size": 0,
      "space": {
        "id": "e634f784-3d8b-11e4-82a5-c3059141127e",
        "title": "Starfsmenn"
      },
      "tags": [],
      "title": "Samningur",
      "type": "File",
      "version": "None.0"
    },
    {
      "aspects": {
        "digitalsignature": {
          "digital_signature": ""
        }
      },
      "category": "main",
      "created": "2014-09-17T13:55:56",
      "created_by": "Guðrún Ósvífursdóttir",
      "description": "",
      "digest": "06da88612a41cdb5a58e450d3ff6226c",
      "dynatype": {
        "caption_plural": "dynatypes_labels:MeetingNote_plural:",
        "caption_singular": "dynatypes_labels:MeetingNote_singular:",
        "id": "2fdb6dec-3d8b-11e4-9b62-fb6fa5bc78d3"
      },
      "filename": "667986 -CI 73461.PDF",
      "folder": null,
      "id": "5894cf02-3e72-11e4-b862-130d89319266",
      "mime_type": "application/pdf",
      "modified": "2014-09-17T16:35:00",
      "modified_by": null,
      "owner": null,
      "parent": "a5d83e26-3e71-11e4-a3dc-4f1160a5d95e",
      "project": {
        "id": "a5b773f8-3e71-11e4-98b5-2fd72486ea46",
        "identifier": "2014-13",
        "title": "(3) Vinnustofa - framtíðarferli"
      },
      "resource_uri": "/api/v2/files/5894cf02-3e72-11e4-b862-130d89319266/",
      "size": 399765,
      "space": {
        "id": "e634f784-3d8b-11e4-82a5-c3059141127e",
        "title": "Starfsmenn"
      },
      "tags": [
        "fundargerð"
      ],
      "title": "667986 -CI 73461",
      "type": "File",
      "version": "0.2"
    },
    {
      "aspects": {
        "digitalsignature": {
          "digital_signature": "[[\"Hannes P\\u00e9tursson\", \"1411038935\"]]"
        }
      },
      "category": "main",
      "created": "2014-09-17T13:55:33",
      "created_by": "Guðrún Ósvífursdóttir",
      "description": "",
      "digest": "f71b44c0443c5e8dd5b92d332157e350",
      "dynatype": {
        "caption_plural": "dynatypes_labels:LetterIn_plural:",
        "caption_singular": "dynatypes_labels:LetterIn_singular:",
        "id": "2efbafea-3d8b-11e4-93e6-c7dea84fdcd0"
      },
      "filename": "No-17.pdf",
      "folder": null,
      "id": "4ae0d6a8-3e72-11e4-8dfe-ef6c17635b5e",
      "mime_type": "application/pdf",
      "modified": "2014-09-18T11:16:08",
      "modified_by": null,
      "owner": null,
      "parent": "550edbd0-3e71-11e4-b603-2f533110003f",
      "project": {
        "id": "54edb1d0-3e71-11e4-887c-ef003ef61c6c",
        "identifier": "2014-11",
        "title": "(1) Undirbúningur vinnustofu"
      },
      "resource_uri": "/api/v2/files/4ae0d6a8-3e72-11e4-8dfe-ef6c17635b5e/",
      "size": 1154778,
      "space": {
        "id": "e634f784-3d8b-11e4-82a5-c3059141127e",
        "title": "Starfsmenn"
      },
      "tags": [],
      "title": "No-17",
      "type": "File",
      "version": "0.2"
    },
    {
      "aspects": {
        "digitalsignature": {
          "digital_signature": ""
        }
      },
      "category": "main",
      "created": "2014-09-18T12:24:06",
      "created_by": "Haraldur Bjarnason",
      "description": "",
      "digest": "",
      "dynatype": {
        "caption_plural": "dynatypes_labels:File_plural:",
        "caption_singular": "dynatypes_labels:File_singular:",
        "id": "36f7da88-3e59-11e4-bea0-d3a429e2fd15"
      },
      "filename": "2012-11_Agenda_Short.pdf",
      "folder": null,
      "id": "aecc557c-3f2e-11e4-97ad-73454a1be3c2",
      "mime_type": "application/pdf",
      "modified": "2014-09-18T12:24:06",
      "modified_by": null,
      "owner": null,
      "parent": "b5d9c9de-3e80-11e4-9453-474a1d0e39ef",
      "project": {
        "id": "b5b410d6-3e80-11e4-b90b-77230dd3f4cc",
        "identifier": "2014-31",
        "title": "Stjórnarfundur - 1.okt.2014"
      },
      "resource_uri": "/api/v2/files/aecc557c-3f2e-11e4-97ad-73454a1be3c2/",
      "size": 0,
      "space": {
        "id": "f7ca5d26-3e72-11e4-b8a1-674baf76ddd9",
        "title": "Stjórnarfundir"
      },
      "tags": [],
      "title": "2012-11_Agenda_Short",
      "type": "File",
      "version": "None.0"
    },
    {
      "aspects": {
        "digitalsignature": {
          "digital_signature": ""
        }
      },
      "category": "main",
      "created": "2014-09-18T12:24:09",
      "created_by": "Haraldur Bjarnason",
      "description": "",
      "digest": "",
      "dynatype": {
        "caption_plural": "dynatypes_labels:File_plural:",
        "caption_singular": "dynatypes_labels:File_singular:",
        "id": "36f7da88-3e59-11e4-bea0-d3a429e2fd15"
      },
      "filename": "2012-12-13 Governing Board - Public Minutes-1133.pdf",
      "folder": null,
      "id": "b0d555b2-3f2e-11e4-93a3-2bf4000466ed",
      "mime_type": "application/pdf",
      "modified": "2014-09-18T12:24:09",
      "modified_by": null,
      "owner": null,
      "parent": "b5d9c9de-3e80-11e4-9453-474a1d0e39ef",
      "project": {
        "id": "b5b410d6-3e80-11e4-b90b-77230dd3f4cc",
        "identifier": "2014-31",
        "title": "Stjórnarfundur - 1.okt.2014"
      },
      "resource_uri": "/api/v2/files/b0d555b2-3f2e-11e4-93a3-2bf4000466ed/",
      "size": 0,
      "space": {
        "id": "f7ca5d26-3e72-11e4-b8a1-674baf76ddd9",
        "title": "Stjórnarfundir"
      },
      "tags": [],
      "title": "2012-12-13 Governing Board - Public Minutes-1133",
      "type": "File",
      "version": "None.0"
    },
    {
      "aspects": {
        "digitalsignature": {
          "digital_signature": ""
        }
      },
      "category": "main",
      "created": "2014-09-18T12:24:09",
      "created_by": "Haraldur Bjarnason",
      "description": "",
      "digest": "",
      "dynatype": {
        "caption_plural": "dynatypes_labels:File_plural:",
        "caption_singular": "dynatypes_labels:File_singular:",
        "id": "36f7da88-3e59-11e4-bea0-d3a429e2fd15"
      },
      "filename": "36_37_Flood_2012_11_BCBUpdateGBpresentation.pdf",
      "folder": null,
      "id": "b0dec26e-3f2e-11e4-8a95-a7c8b6b8dcc5",
      "mime_type": "application/pdf",
      "modified": "2014-09-18T12:24:09",
      "modified_by": null,
      "owner": null,
      "parent": "b5d9c9de-3e80-11e4-9453-474a1d0e39ef",
      "project": {
        "id": "b5b410d6-3e80-11e4-b90b-77230dd3f4cc",
        "identifier": "2014-31",
        "title": "Stjórnarfundur - 1.okt.2014"
      },
      "resource_uri": "/api/v2/files/b0dec26e-3f2e-11e4-8a95-a7c8b6b8dcc5/",
      "size": 0,
      "space": {
        "id": "f7ca5d26-3e72-11e4-b8a1-674baf76ddd9",
        "title": "Stjórnarfundir"
      },
      "tags": [],
      "title": "36_37_Flood_2012_11_BCBUpdateGBpresentation",
      "type": "File",
      "version": "None.0"
    },
    {
      "aspects": {
        "digitalsignature": {
          "digital_signature": ""
        }
      },
      "category": "main",
      "created": "2014-09-18T12:24:13",
      "created_by": "Haraldur Bjarnason",
      "description": "",
      "digest": "",
      "dynatype": {
        "caption_plural": "dynatypes_labels:File_plural:",
        "caption_singular": "dynatypes_labels:File_singular:",
        "id": "36f7da88-3e59-11e4-bea0-d3a429e2fd15"
      },
      "filename": "35_Meeker_2012_11_C51GBpresentation.pdf",
      "folder": null,
      "id": "b2fc8810-3f2e-11e4-bc65-ffa8d85fbc63",
      "mime_type": "application/pdf",
      "modified": "2014-09-18T12:24:13",
      "modified_by": null,
      "owner": null,
      "parent": "b5d9c9de-3e80-11e4-9453-474a1d0e39ef",
      "project": {
        "id": "b5b410d6-3e80-11e4-b90b-77230dd3f4cc",
        "identifier": "2014-31",
        "title": "Stjórnarfundur - 1.okt.2014"
      },
      "resource_uri": "/api/v2/files/b2fc8810-3f2e-11e4-bc65-ffa8d85fbc63/",
      "size": 0,
      "space": {
        "id": "f7ca5d26-3e72-11e4-b8a1-674baf76ddd9",
        "title": "Stjórnarfundir"
      },
      "tags": [],
      "title": "35_Meeker_2012_11_C51GBpresentation",
      "type": "File",
      "version": "None.0"
    },
    {
      "aspects": {
        "digitalsignature": {
          "digital_signature": "[[\"\\u00d3skar \\u00de\\u00f3r \\u00der\\u00e1insson\", \"1411054885\"], [\"Haraldur Agnar Bjarnason\", \"1411054737\"]]"
        }
      },
      "category": "main",
      "created": "2014-09-18T12:23:23",
      "created_by": "Haraldur Bjarnason",
      "description": "",
      "digest": "eff7b5a7d3417b085df7a8c3f1a952ee",
      "dynatype": {
        "caption_plural": "dynatypes_labels:File_plural:",
        "caption_singular": "dynatypes_labels:File_singular:",
        "id": "36f7da88-3e59-11e4-bea0-d3a429e2fd15"
      },
      "filename": "Fundargerd.pdf",
      "folder": null,
      "id": "953320fa-3f2e-11e4-9ad1-277a99cac0c3",
      "mime_type": "application/pdf",
      "modified": "2014-09-18T15:42:33",
      "modified_by": null,
      "owner": null,
      "parent": "b5d9c9de-3e80-11e4-9453-474a1d0e39ef",
      "project": {
        "id": "b5b410d6-3e80-11e4-b90b-77230dd3f4cc",
        "identifier": "2014-31",
        "title": "Stjórnarfundur - 1.okt.2014"
      },
      "resource_uri": "/api/v2/files/953320fa-3f2e-11e4-9ad1-277a99cac0c3/",
      "size": 233749,
      "space": {
        "id": "f7ca5d26-3e72-11e4-b8a1-674baf76ddd9",
        "title": "Stjórnarfundir"
      },
      "tags": [],
      "title": "Fundargerd",
      "type": "File",
      "version": "0.2"
    },
    {
      "aspects": {
        "digitalsignature": {
          "digital_signature": ""
        }
      },
      "category": "main",
      "created": "2014-09-19T23:37:53",
      "created_by": "Guðrún Ósvífursdóttir",
      "description": "",
      "digest": null,
      "dynatype": {
        "caption_plural": "dynatypes_labels:File_plural:",
        "caption_singular": "dynatypes_labels:File_singular:",
        "id": "36f7da88-3e59-11e4-bea0-d3a429e2fd15"
      },
      "filename": "FEC9138E-4F37-414A-985A-8DB25EFD9DC7Test1.pdf",
      "folder": null,
      "id": "f9c8f788-4055-11e4-9578-3b168c432db4",
      "mime_type": null,
      "modified": "2014-09-19T23:37:53",
      "modified_by": null,
      "owner": null,
      "parent": "99a4a120-4043-11e4-b123-1b5543bfd16f",
      "project": {
        "id": "996ee9fe-4043-11e4-b695-b368f0862ea7",
        "identifier": "2014-35",
        "title": "Happening"
      },
      "resource_uri": "/api/v2/files/f9c8f788-4055-11e4-9578-3b168c432db4/",
      "size": null,
      "space": {
        "id": "6825a28c-3e6f-11e4-9c46-b7cf8e29a56f",
        "title": "Fjármál"
      },
      "tags": [],
      "title": "FEC9138E-4F37-414A-985A-8DB25EFD9DC7Test1",
      "type": "File",
      "version": "None.0"
    },
    {
      "aspects": {
        "digitalsignature": {
          "digital_signature": ""
        }
      },
      "category": "main",
      "created": "2014-09-19T23:38:46",
      "created_by": "Guðrún Ósvífursdóttir",
      "description": "",
      "digest": null,
      "dynatype": {
        "caption_plural": "dynatypes_labels:File_plural:",
        "caption_singular": "dynatypes_labels:File_singular:",
        "id": "36f7da88-3e59-11e4-bea0-d3a429e2fd15"
      },
      "filename": "89E47CCB-0886-4D7B-B223-0A71378ACD77Test1.pdf",
      "folder": null,
      "id": "19318e32-4056-11e4-8fb5-7b22637dfa44",
      "mime_type": null,
      "modified": "2014-09-19T23:38:46",
      "modified_by": null,
      "owner": null,
      "parent": "99a4a120-4043-11e4-b123-1b5543bfd16f",
      "project": {
        "id": "996ee9fe-4043-11e4-b695-b368f0862ea7",
        "identifier": "2014-35",
        "title": "Happening"
      },
      "resource_uri": "/api/v2/files/19318e32-4056-11e4-8fb5-7b22637dfa44/",
      "size": null,
      "space": {
        "id": "6825a28c-3e6f-11e4-9c46-b7cf8e29a56f",
        "title": "Fjármál"
      },
      "tags": [],
      "title": "89E47CCB-0886-4D7B-B223-0A71378ACD77Test1",
      "type": "File",
      "version": "None.0"
    },
    {
      "aspects": {
        "digitalsignature": {
          "digital_signature": ""
        }
      },
      "category": "main",
      "created": "2014-09-19T23:55:50",
      "created_by": "Hannes Pétursson",
      "description": "",
      "digest": null,
      "dynatype": {
        "caption_plural": "dynatypes_labels:File_plural:",
        "caption_singular": "dynatypes_labels:File_singular:",
        "id": "36f7da88-3e59-11e4-bea0-d3a429e2fd15"
      },
      "filename": "DBEFB48C-A47B-4D99-9E66-9E3756EAF292test.eml",
      "folder": null,
      "id": "7be57fc8-4058-11e4-a9f2-4398a5d1f595",
      "mime_type": null,
      "modified": "2014-09-19T23:55:50",
      "modified_by": null,
      "owner": null,
      "parent": "99a4a120-4043-11e4-b123-1b5543bfd16f",
      "project": {
        "id": "996ee9fe-4043-11e4-b695-b368f0862ea7",
        "identifier": "2014-35",
        "title": "Happening"
      },
      "resource_uri": "/api/v2/files/7be57fc8-4058-11e4-a9f2-4398a5d1f595/",
      "size": null,
      "space": {
        "id": "6825a28c-3e6f-11e4-9c46-b7cf8e29a56f",
        "title": "Fjármál"
      },
      "tags": [],
      "title": "DBEFB48C-A47B-4D99-9E66-9E3756EAF292test",
      "type": "File",
      "version": "None.0"
    },
    {
      "aspects": {
        "digitalsignature": {
          "digital_signature": ""
        }
      },
      "category": "main",
      "created": "2014-09-19T23:42:36",
      "created_by": "Hannes Pétursson",
      "description": "",
      "digest": null,
      "dynatype": {
        "caption_plural": "dynatypes_labels:File_plural:",
        "caption_singular": "dynatypes_labels:File_singular:",
        "id": "36f7da88-3e59-11e4-bea0-d3a429e2fd15"
      },
      "filename": "0C5894DE-9F05-4E6F-99CB-28233115623BTest1.pdf",
      "folder": null,
      "id": "a27043a0-4056-11e4-91f6-abc7b0ba9185",
      "mime_type": null,
      "modified": "2014-09-19T23:42:36",
      "modified_by": null,
      "owner": null,
      "parent": "99a4a120-4043-11e4-b123-1b5543bfd16f",
      "project": {
        "id": "996ee9fe-4043-11e4-b695-b368f0862ea7",
        "identifier": "2014-35",
        "title": "Happening"
      },
      "resource_uri": "/api/v2/files/a27043a0-4056-11e4-91f6-abc7b0ba9185/",
      "size": null,
      "space": {
        "id": "6825a28c-3e6f-11e4-9c46-b7cf8e29a56f",
        "title": "Fjármál"
      },
      "tags": [],
      "title": "0C5894DE-9F05-4E6F-99CB-28233115623BTest1",
      "type": "File",
      "version": "None.0"
    }
  ]
}
